<svg width="161" height="169" viewBox="0 0 161 169" version="1.1" xmlns="http://www.w3.org/2000/svg" xmlns:xlink="http://www.w3.org/1999/xlink">
<title>building</title>
<desc>Created using Figma</desc>
<g id="Canvas" transform="translate(-331 -1504)">
<g id="building">
<g id="Rectangle 4" opacity="0.101959">
<mask id="mask0_outline_ins">
<use xlink:href="#path0_fill" fill="white" transform="translate(331 1504)"/>
</mask>
<g mask="url(#mask0_outline_ins)">
<use xlink:href="#path1_stroke_2x" transform="translate(331 1504)" fill="#FFFFFF"/>
</g>
</g>
<g id="skyline">
<g id="skyline">
<g id="Group 3">
<mask id="mask1_outline" mask-type="alpha">
<g id="Clip 2">
<use xlink:href="#path2_fill" transform="translate(346.005 1520)" fill="#FFFFFF"/>
</g>
</mask>
<g id="Fill 1" mask="url(#mask1_outline)">
<use xlink:href="#path3_fill" transform="translate(346 1520)" fill="#3FD1FD"/>
</g>
</g>
<g id="Fill 4">
<use xlink:href="#path4_fill" transform="translate(363.283 1542.2)" fill="#FFFFFF"/>
</g>
<g id="Fill 5">
<use xlink:href="#path5_fill" transform="translate(365.876 1542.2)" fill="#FFFFFF"/>
</g>
<g id="Fill 6">
<use xlink:href="#path5_fill" transform="translate(368.468 1542.2)" fill="#FFFFFF"/>
</g>
<g id="Fill 7">
<use xlink:href="#path6_fill" transform="translate(369.332 1525.98)" fill="#FFFFFF"/>
</g>
<g id="Fill 8">
<use xlink:href="#path7_fill" transform="translate(371.925 1525.98)" fill="#FFFFFF"/>
</g>
<g id="Fill 9">
<use xlink:href="#path8_fill" transform="translate(374.517 1525.98)" fill="#FFFFFF"/>
</g>
<g id="Fill 10">
<use xlink:href="#path9_fill" transform="translate(369.332 1530.25)" fill="#FFFFFF"/>
</g>
<g id="Fill 11">
<use xlink:href="#path10_fill" transform="translate(371.925 1530.25)" fill="#FFFFFF"/>
</g>
<g id="Fill 12">
<use xlink:href="#path11_fill" transform="translate(374.517 1530.25)" fill="#FFFFFF"/>
</g>
<g id="Fill 13">
<use xlink:href="#path12_fill" transform="translate(369.332 1534.52)" fill="#FFFFFF"/>
</g>
<g id="Fill 14">
<use xlink:href="#path13_fill" transform="translate(371.925 1534.52)" fill="#FFFFFF"/>
</g>
<g id="Fill 15">
<use xlink:href="#path14_fill" transform="translate(374.517 1534.52)" fill="#FFFFFF"/>
</g>
<g id="Fill 16">
<use xlink:href="#path15_fill" transform="translate(351.185 1536.22)" fill="#FFFFFF"/>
</g>
<g id="Fill 17">
<use xlink:href="#path16_fill" transform="translate(353.777 1536.22)" fill="#FFFFFF"/>
</g>
<g id="Fill 18">
<use xlink:href="#path17_fill" transform="translate(356.37 1536.22)" fill="#FFFFFF"/>
</g>
<g id="Fill 19">
<use xlink:href="#path15_fill" transform="translate(351.185 1540.49)" fill="#FFFFFF"/>
</g>
<g id="Fill 20">
<use xlink:href="#path16_fill" transform="translate(353.777 1540.49)" fill="#FFFFFF"/>
</g>
<g id="Fill 21">
<use xlink:href="#path17_fill" transform="translate(356.37 1540.49)" fill="#FFFFFF"/>
</g>
<g id="Fill 22">
<use xlink:href="#path18_fill" transform="translate(351.185 1544.76)" fill="#FFFFFF"/>
</g>
<g id="Fill 23">
<use xlink:href="#path19_fill" transform="translate(353.777 1544.76)" fill="#FFFFFF"/>
</g>
<g id="Fill 24">
<use xlink:href="#path20_fill" transform="translate(356.37 1544.76)" fill="#FFFFFF"/>
</g>
<g id="Fill 25">
<use xlink:href="#path21_fill" transform="translate(351.185 1549.03)" fill="#FFFFFF"/>
</g>
<g id="Fill 26">
<use xlink:href="#path19_fill" transform="translate(353.777 1549.03)" fill="#FFFFFF"/>
</g>
<g id="Fill 27">
<use xlink:href="#path20_fill" transform="translate(356.37 1549.03)" fill="#FFFFFF"/>
</g>
<g id="Fill 28">
<use xlink:href="#path14_fill" transform="translate(374.517 1538.79)" fill="#FFFFFF"/>
</g>
<g id="Fill 29">
<use xlink:href="#path17_fill" transform="translate(374.517 1543.06)" fill="#FFFFFF"/>
</g>
<g id="Fill 30">
<use xlink:href="#path17_fill" transform="translate(374.517 1547.33)" fill="#FFFFFF"/>
</g>
<g id="Fill 31">
<use xlink:href="#path17_fill" transform="translate(374.517 1551.6)" fill="#FFFFFF"/>
</g>
<g id="Fill 32">
<use xlink:href="#path22_fill" transform="translate(357.234 1529.39)" fill="#FFFFFF"/>
</g>
</g>
</g>
</g>
</g>
<defs>
<path id="path0_fill" fill-rule="evenodd" d="M 0 0L 161 0L 161 169L 0 169L 0 0Z"/>
<path id="path1_stroke_2x" d="M 0 0L 0 -1L -1 -1L -1 0L 0 0ZM 161 0L 162 0L 162 -1L 161 -1L 161 0ZM 161 169L 161 170L 162 170L 162 169L 161 169ZM 0 169L -1 169L -1 170L 0 170L 0 169ZM 0 1L 161 1L 161 -1L 0 -1L 0 1ZM 160 0L 160 169L 162 169L 162 0L 160 0ZM 161 168L 0 168L 0 170L 161 170L 161 168ZM 1 169L 1 0L -1 0L -1 169L 1 169Z"/>
<path id="path2_fill" fill-rule="evenodd" d="M 0 38L 34.9938 38L 34.9938 0L 0 0L 0 38Z"/>
<path id="path3_fill" fill-rule="evenodd" d="M 15.1227 36.7191L 25.9247 36.7191L 25.9247 20.9214L 15.1227 20.9214L 15.1227 36.7191ZM 9.07363 36.7192L 9.07363 35.6518C 9.07363 35.298 8.78342 35.0113 8.42553 35.0113C 8.06757 35.0113 7.77743 35.298 7.77743 35.6518L 7.77743 36.7192L 7.34534 36.7192L 7.34534 34.5844L 9.50572 34.5844L 9.50572 36.7192L 9.07363 36.7192ZM 3.02457 13.236L 13.8265 13.236L 13.8265 36.7191L 10.8019 36.7191L 10.8019 33.9438C 10.8019 33.5901 10.5118 33.3034 10.1538 33.3034L 6.69724 33.3034C 6.33928 33.3034 6.04906 33.5901 6.04906 33.9438L 6.04906 36.7191L 3.02457 36.7191L 3.02457 13.236ZM 9.07364 7.25842L 19.8756 7.25842L 19.8756 19.6404L 15.1227 19.6404L 15.1227 17.5056L 17.0671 17.5056C 17.425 17.5056 17.7152 17.219 17.7152 16.8652C 17.7152 16.5113 17.425 16.2247 17.0671 16.2247L 15.1227 16.2247L 15.1227 14.0899L 17.0671 14.0899C 17.425 14.0899 17.7152 13.8032 17.7152 13.4494C 17.7152 13.0957 17.425 12.8089 17.0671 12.8089L 15.1227 12.8089L 15.1227 12.5955C 15.1227 12.2417 14.8326 11.9551 14.4746 11.9551L 9.07364 11.9551L 9.07364 7.25842ZM 11.6661 5.97748L 17.2831 5.97748L 17.2831 3.84265L 11.6661 3.84265L 11.6661 5.97748ZM 21.1718 3.84265L 31.9738 3.84265L 31.9738 36.7191L 27.2209 36.7191L 27.2209 19.427C 27.2209 19.0732 26.9307 18.7865 26.5728 18.7865C 26.2148 18.7865 25.9247 19.0732 25.9247 19.427L 25.9247 19.6404L 24.6284 19.6404L 24.6284 19.427C 24.6284 19.0732 24.3383 18.7865 23.9803 18.7865C 23.6224 18.7865 23.3322 19.0732 23.3322 19.427L 23.3322 19.6404L 21.1718 19.6404L 21.1718 3.84265ZM 34.3502 36.7191L 33.27 36.7191L 33.27 3.20224C 33.27 2.84844 32.9798 2.56181 32.6219 2.56181L 20.5237 2.56181C 20.1658 2.56181 19.8756 2.84844 19.8756 3.20224L 19.8756 5.9775L 18.5794 5.9775L 18.5794 3.20224C 18.5794 2.84844 18.2892 2.56181 17.9313 2.56181L 15.1227 2.56181L 15.1227 0.640434C 15.1227 0.286633 14.8326 0 14.4746 0C 14.1166 0 13.8265 0.286633 13.8265 0.640434L 13.8265 2.56181L 11.018 2.56181C 10.6601 2.56181 10.3698 2.84844 10.3698 3.20224L 10.3698 5.9775L 8.42554 5.9775C 8.06757 5.9775 7.77744 6.26421 7.77744 6.61794L 7.77744 11.9551L 2.37639 11.9551C 2.01851 11.9551 1.72829 12.2417 1.72829 12.5955L 1.72829 36.7191L 0.648101 36.7191C 0.290215 36.7191 0 37.0058 0 37.3596C 0 37.7134 0.290215 38 0.648101 38L 34.3502 38C 34.7081 38 34.9983 37.7134 34.9983 37.3596C 34.9983 37.0058 34.7081 36.7191 34.3502 36.7191Z"/>
<path id="path4_fill" fill-rule="evenodd" d="M 0.648176 0C 0.290215 0 0 0.286707 0 0.640508L 0 12.5955C 0 12.9492 0.290215 13.2359 0.648176 13.2359C 1.00606 13.2359 1.29628 12.9492 1.29628 12.5955L 1.29628 0.640508C 1.29628 0.286707 1.00606 0 0.648176 0Z"/>
<path id="path5_fill" fill-rule="evenodd" d="M 0.648101 0C 0.290215 0 0 0.286707 0 0.640508L 0 12.5955C 0 12.9492 0.290215 13.2359 0.648101 13.2359C 1.00606 13.2359 1.29628 12.9492 1.29628 12.5955L 1.29628 0.640508C 1.29628 0.286707 1.00606 0 0.648101 0Z"/>
<path id="path6_fill" fill-rule="evenodd" d="M 0.648101 2.13483C 1.00606 2.13483 1.2962 1.8482 1.2962 1.49439L 1.2962 0.640434C 1.2962 0.286707 1.00606 0 0.648101 0C 0.290139 0 0 0.286707 0 0.640434L 0 1.49439C 0 1.8482 0.290139 2.13483 0.648101 2.13483Z"/>
<path id="path7_fill" fill-rule="evenodd" d="M 0.648101 2.13483C 1.00599 2.13483 1.2962 1.8482 1.2962 1.49439L 1.2962 0.640434C 1.2962 0.286707 1.00599 0 0.648101 0C 0.290139 0 0 0.286707 0 0.640434L 0 1.49439C 0 1.8482 0.290139 2.13483 0.648101 2.13483Z"/>
<path id="path8_fill" fill-rule="evenodd" d="M 0.648176 2.13483C 1.00606 2.13483 1.29628 1.8482 1.29628 1.49439L 1.29628 0.640434C 1.29628 0.286707 1.00606 0 0.648176 0C 0.290215 0 0 0.286707 0 0.640434L 0 1.49439C 0 1.8482 0.290215 2.13483 0.648176 2.13483Z"/>
<path id="path9_fill" fill-rule="evenodd" d="M 0.648101 2.13483C 1.00606 2.13483 1.2962 1.8482 1.2962 1.49439L 1.2962 0.640508C 1.2962 0.286707 1.00606 0 0.648101 0C 0.290139 0 0 0.286707 0 0.640508L 0 1.49439C 0 1.8482 0.290139 2.13483 0.648101 2.13483Z"/>
<path id="path10_fill" fill-rule="evenodd" d="M 0.648101 2.13483C 1.00599 2.13483 1.2962 1.8482 1.2962 1.49439L 1.2962 0.640508C 1.2962 0.286707 1.00599 0 0.648101 0C 0.290139 0 0 0.286707 0 0.640508L 0 1.49439C 0 1.8482 0.290139 2.13483 0.648101 2.13483Z"/>
<path id="path11_fill" fill-rule="evenodd" d="M 0.648176 2.13483C 1.00606 2.13483 1.29628 1.8482 1.29628 1.49439L 1.29628 0.640508C 1.29628 0.286707 1.00606 0 0.648176 0C 0.290215 0 0 0.286707 0 0.640508L 0 1.49439C 0 1.8482 0.290215 2.13483 0.648176 2.13483Z"/>
<path id="path12_fill" fill-rule="evenodd" d="M 0.648101 2.13483C 1.00606 2.13483 1.2962 1.84812 1.2962 1.49432L 1.2962 0.640434C 1.2962 0.286633 1.00606 0 0.648101 0C 0.290139 0 0 0.286633 0 0.640434L 0 1.49432C 0 1.84812 0.290139 2.13483 0.648101 2.13483Z"/>
<path id="path13_fill" fill-rule="evenodd" d="M 0.648101 2.13483C 1.00599 2.13483 1.2962 1.84812 1.2962 1.49432L 1.2962 0.640434C 1.2962 0.286633 1.00599 0 0.648101 0C 0.290139 0 0 0.286633 0 0.640434L 0 1.49432C 0 1.84812 0.290139 2.13483 0.648101 2.13483Z"/>
<path id="path14_fill" fill-rule="evenodd" d="M 0.648176 2.13483C 1.00606 2.13483 1.29628 1.84812 1.29628 1.49432L 1.29628 0.640434C 1.29628 0.286633 1.00606 0 0.648176 0C 0.290215 0 0 0.286633 0 0.640434L 0 1.49432C 0 1.84812 0.290215 2.13483 0.648176 2.13483Z"/>
<path id="path15_fill" fill-rule="evenodd" d="M 0.648101 2.13483C 1.00606 2.13483 1.2962 1.84812 1.2962 1.49439L 1.2962 0.640434C 1.2962 0.286633 1.00606 0 0.648101 0C 0.290139 0 0 0.286633 0 0.640434L 0 1.49439C 0 1.84812 0.290139 2.13483 0.648101 2.13483Z"/>
<path id="path16_fill" fill-rule="evenodd" d="M 0.648101 2.13483C 1.00599 2.13483 1.2962 1.84812 1.2962 1.49439L 1.2962 0.640434C 1.2962 0.286633 1.00599 0 0.648101 0C 0.290139 0 0 0.286633 0 0.640434L 0 1.49439C 0 1.84812 0.290139 2.13483 0.648101 2.13483Z"/>
<path id="path17_fill" fill-rule="evenodd" d="M 0.648176 2.13483C 1.00606 2.13483 1.29628 1.84812 1.29628 1.49439L 1.29628 0.640434C 1.29628 0.286633 1.00606 0 0.648176 0C 0.290215 0 0 0.286633 0 0.640434L 0 1.49439C 0 1.84812 0.290215 2.13483 0.648176 2.13483Z"/>
<path id="path18_fill" fill-rule="evenodd" d="M 0.648101 2.13483C 1.00606 2.13483 1.2962 1.8482 1.2962 1.49439L 1.2962 0.640434C 1.2962 0.286633 1.00606 0 0.648101 0C 0.290139 0 0 0.286633 0 0.640434L 0 1.49439C 0 1.8482 0.290139 2.13483 0.648101 2.13483Z"/>
<path id="path19_fill" fill-rule="evenodd" d="M 0.648101 2.13483C 1.00599 2.13483 1.2962 1.8482 1.2962 1.49439L 1.2962 0.640434C 1.2962 0.286633 1.00599 0 0.648101 0C 0.290139 0 0 0.286633 0 0.640434L 0 1.49439C 0 1.8482 0.290139 2.13483 0.648101 2.13483Z"/>
<path id="path20_fill" fill-rule="evenodd" d="M 0.648176 2.13483C 1.00606 2.13483 1.29628 1.8482 1.29628 1.49439L 1.29628 0.640434C 1.29628 0.286633 1.00606 0 0.648176 0C 0.290215 0 0 0.286633 0 0.640434L 0 1.49439C 0 1.8482 0.290215 2.13483 0.648176 2.13483Z"/>
<path id="path21_fill" fill-rule="evenodd" d="M 1.2962 1.49439L 1.2962 0.640434C 1.2962 0.286633 1.00606 0 0.648101 0C 0.290139 0 0 0.286633 0 0.640434L 0 1.49439C 0 1.8482 0.290139 2.13483 0.648101 2.13483C 1.00606 2.13483 1.2962 1.8482 1.2962 1.49439Z"/>
<path id="path22_fill" fill-rule="evenodd" d="M 6.48116 0.640434C 6.48116 0.286633 6.19102 0 5.83306 0L 0.648101 0C 0.290215 0 0 0.286633 0 0.640434C 0 0.994234 0.290215 1.28087 0.648101 1.28087L 5.83306 1.28087C 6.19102 1.28087 6.48116 0.994234 6.48116 0.640434Z"/>
</defs>
</svg>
