<svg width="401" height="99" viewBox="0 0 401 99" version="1.1" xmlns="http://www.w3.org/2000/svg" xmlns:xlink="http://www.w3.org/1999/xlink">
<title>poliarys_logo_ukr_black</title>
<desc>Created using Figma</desc>
<g id="Canvas" transform="translate(76 -1288)">
<g id="poliarys_logo_ukr_black" opacity="0.502548">
<g id="Group">
<g id="Shape">
<use xlink:href="#path0_fill" transform="translate(56 1370.7)" fill="#FFFFFF"/>
</g>
<g id="Shape">
<use xlink:href="#path1_fill" transform="translate(67.7 1370.7)" fill="#FFFFFF"/>
</g>
<g id="Shape">
<use xlink:href="#path2_fill" transform="translate(76.5 1370.7)" fill="#FFFFFF"/>
</g>
<g id="Shape">
<use xlink:href="#path1_fill" transform="translate(86.2 1370.7)" fill="#FFFFFF"/>
</g>
<g id="Shape">
<use xlink:href="#path3_fill" transform="translate(94.4 1370.7)" fill="#FFFFFF"/>
</g>
<g id="Shape">
<use xlink:href="#path4_fill" transform="translate(105.5 1370.5)" fill="#FFFFFF"/>
</g>
<g id="Shape">
<use xlink:href="#path5_fill" transform="translate(117.4 1370.7)" fill="#FFFFFF"/>
</g>
<g id="Shape">
<use xlink:href="#path1_fill" transform="translate(128.3 1370.7)" fill="#FFFFFF"/>
</g>
<g id="Shape">
<use xlink:href="#path6_fill" transform="translate(137.1 1370.7)" fill="#FFFFFF"/>
</g>
<g id="Shape">
<use xlink:href="#path7_fill" transform="translate(145.8 1370.5)" fill="#FFFFFF"/>
</g>
<g id="Shape">
<use xlink:href="#path8_fill" transform="translate(156.5 1370.6)" fill="#FFFFFF"/>
</g>
<g id="Shape">
<use xlink:href="#path9_fill" transform="translate(165.6 1370.7)" fill="#FFFFFF"/>
</g>
<g id="Shape">
<use xlink:href="#path10_fill" transform="translate(174 1370.7)" fill="#FFFFFF"/>
</g>
<g id="Shape">
<use xlink:href="#path9_fill" transform="translate(189.5 1370.7)" fill="#FFFFFF"/>
</g>
<g id="Shape">
<use xlink:href="#path11_fill" transform="translate(197.6 1370.5)" fill="#FFFFFF"/>
</g>
<g id="Shape">
<use xlink:href="#path12_fill" transform="translate(209.6 1370.7)" fill="#FFFFFF"/>
</g>
<g id="Shape">
<use xlink:href="#path5_fill" transform="translate(221.8 1370.7)" fill="#FFFFFF"/>
</g>
<g id="Shape">
<use xlink:href="#path13_fill" transform="translate(231.8 1370.7)" fill="#FFFFFF"/>
</g>
<g id="Shape">
<use xlink:href="#path14_fill" transform="translate(242.7 1370.7)" fill="#FFFFFF"/>
</g>
<g id="Shape">
<use xlink:href="#path15_fill" transform="translate(253.6 1370.7)" fill="#FFFFFF"/>
</g>
<g id="Shape">
<use xlink:href="#path16_fill" transform="translate(257.4 1370.8)" fill="#FFFFFF"/>
</g>
</g>
<g id="Group">
<g id="Shape">
<use xlink:href="#path17_fill" transform="translate(56 1318.7)" fill="#FFFFFF"/>
</g>
<g id="Shape">
<use xlink:href="#path18_fill" transform="translate(93.2 1318)" fill="#FFFFFF"/>
</g>
<g id="Shape">
<use xlink:href="#path19_fill" transform="translate(135 1318.3)" fill="#FFFFFF"/>
</g>
<g id="Shape">
<use xlink:href="#path20_fill" transform="translate(175.2 1318.6)" fill="#FFFFFF"/>
</g>
<g id="Shape">
<use xlink:href="#path21_fill" transform="translate(214 1318.56)" fill="#FFFFFF"/>
</g>
<g id="Shape">
<use xlink:href="#path22_fill" transform="translate(249.2 1318.5)" fill="#FFFFFF"/>
</g>
<g id="Shape">
<use xlink:href="#path23_fill" transform="translate(287.6 1318.3)" fill="#FFFFFF"/>
</g>
</g>
<g id="Group">
<g id="Oval">
<use xlink:href="#path24_fill" transform="matrix(0.707107 -0.707107 0.707107 0.707107 16.4254 1337.7)" fill="#F7F7F7"/>
</g>
<g id="Oval">
<use xlink:href="#path25_fill" transform="matrix(0.707107 -0.707107 0.707107 0.707107 7.73667 1350.53)" fill="#F7F7F7"/>
</g>
<g id="Oval">
<use xlink:href="#path25_fill" transform="matrix(0.707107 -0.707107 0.707107 0.707107 -43.2764 1299.36)" fill="#F7F7F7"/>
</g>
<g id="Oval">
<use xlink:href="#path25_fill" transform="matrix(0.707107 -0.707107 0.707107 0.707107 -17.6507 1299.42)" fill="#F7F7F7"/>
</g>
<g id="Oval">
<use xlink:href="#path25_fill" transform="matrix(0.707107 -0.707107 0.707107 0.707107 7.85232 1324.88)" fill="#F7F7F7"/>
</g>
<g id="Oval">
<use xlink:href="#path25_fill" transform="matrix(0.707107 -0.707107 0.707107 0.707107 -68.7639 1350.53)" fill="#F7F7F7"/>
</g>
<g id="Oval">
<use xlink:href="#path25_fill" transform="matrix(0.707107 -0.707107 0.707107 0.707107 -43.3048 1375.87)" fill="#F7F7F7"/>
</g>
<g id="Oval">
<use xlink:href="#path25_fill" transform="matrix(0.707107 -0.707107 0.707107 0.707107 -17.673 1376.03)" fill="#F7F7F7"/>
</g>
<g id="Oval">
<use xlink:href="#path25_fill" transform="matrix(0.707107 -0.707107 0.707107 0.707107 -68.7324 1324.92)" fill="#F7F7F7"/>
</g>
<g id="Oval">
<use xlink:href="#path24_fill" transform="matrix(0.707107 -0.707107 0.707107 0.707107 -30.1598 1291.1)" fill="#F7F7F7"/>
</g>
<g id="Oval">
<use xlink:href="#path24_fill" transform="matrix(0.707107 -0.707107 0.707107 0.707107 -30.2244 1384.23)" fill="#F7F7F7"/>
</g>
<g id="Oval">
<use xlink:href="#path24_fill" transform="matrix(0.707107 -0.707107 0.707107 0.707107 -76.7697 1337.71)" fill="#F7F7F7"/>
</g>
<g id="Oval">
<use xlink:href="#path26_fill" transform="matrix(0.707107 -0.707107 0.707107 0.707107 -57.9533 1310.97)" fill="#F7F7F7"/>
</g>
<g id="Oval">
<use xlink:href="#path26_fill" transform="matrix(0.707107 -0.707107 0.707107 0.707107 -57.9217 1364.3)" fill="#F7F7F7"/>
</g>
<g id="Oval">
<use xlink:href="#path26_fill" transform="matrix(0.707107 -0.707107 0.707107 0.707107 -4.71183 1364.32)" fill="#F7F7F7"/>
</g>
<g id="Oval">
<use xlink:href="#path26_fill" transform="matrix(0.707107 -0.707107 0.707107 0.707107 -4.63055 1311)" fill="#F7F7F7"/>
</g>
<g id="Oval">
<use xlink:href="#path27_fill" transform="matrix(0.707107 -0.707107 0.707107 0.707107 -18.5441 1322.18)" fill="#F7F7F7"/>
</g>
<g id="Oval">
<use xlink:href="#path27_fill" transform="matrix(0.707107 -0.707107 0.707107 0.707107 -18.5402 1353.08)" fill="#F7F7F7"/>
</g>
<g id="Oval">
<use xlink:href="#path27_fill" transform="matrix(0.707107 -0.707107 0.707107 0.707107 -49.3425 1353.08)" fill="#F7F7F7"/>
</g>
<g id="Oval">
<use xlink:href="#path27_fill" transform="matrix(0.707107 -0.707107 0.707107 0.707107 -49.5259 1322.23)" fill="#F7F7F7"/>
</g>
<g id="Oval">
<use xlink:href="#path28_fill" transform="matrix(0.707107 -0.707107 0.707107 0.707107 -3.08567 1337.73)" fill="#F7F7F7"/>
</g>
<g id="Oval">
<use xlink:href="#path28_fill" transform="matrix(0.707107 -0.707107 0.707107 0.707107 -32.3275 1308.42)" fill="#F7F7F7"/>
</g>
<g id="Oval">
<use xlink:href="#path28_fill" transform="matrix(0.707107 -0.707107 0.707107 0.707107 -32.3093 1366.9)" fill="#F7F7F7"/>
</g>
<g id="Oval">
<use xlink:href="#path28_fill" transform="matrix(0.707107 -0.707107 0.707107 0.707107 -61.5027 1337.68)" fill="#F7F7F7"/>
</g>
<g id="Oval">
<use xlink:href="#path29_fill" transform="matrix(0.707107 -0.707107 0.707107 0.707107 -37.5267 1337.71)" fill="#F7F7F7"/>
</g>
</g>
</g>
</g>
<defs>
<path id="path0_fill" fill-rule="evenodd" d="M 2.2 4.69995C 1.8 7.90002 1.1 8.30005 0 8.40002L 0 11.1L 1.2 11.1L 1.2 9.40002L 8.2 9.40002L 8.2 11.1L 9.4 11.1L 9.4 8.30005L 8.5 8.30005L 8.5 0L 2.8 0L 2.2 4.69995ZM 7.3 8.30005L 1.9 8.30005C 2.6 7.80005 3.1 6.69995 3.3 4.80005L 3.8 1L 7.3 1L 7.3 8.30005Z"/>
<path id="path1_fill" d="M 0 9.4L 0 0L 6.1 0L 6.1 1L 1.1 1L 1.1 4L 6 4L 6 5L 1.1 5L 1.1 8.3L 6.1 8.3L 6.1 9.3L 0 9.3L 0 9.4Z"/>
<path id="path2_fill" fill-rule="evenodd" d="M 0 9.40002L 0 0L 4.2 0C 5.8 0 6.8 1 6.8 2.40002C 6.8 3.59998 6 4.40002 5.2 4.59998C 6.2 4.80005 7 5.80005 7 6.90002C 7 8.40002 6 9.40002 4.3 9.40002L 0 9.40002ZM 5.6 2.5C 5.6 1.69995 5 1 4 1L 1.2 1L 1.2 4L 4 4C 5 4 5.6 3.40002 5.6 2.5ZM 4.1 5.09998C 5.2 5.09998 5.8 5.79993 5.8 6.69995C 5.8 7.69995 5.1 8.29993 4.1 8.29993L 1.2 8.29993L 1.2 5.09998L 4.1 5.09998Z"/>
<path id="path3_fill" d="M 2.84217e-14 8.5C 1.1 8.5 1.8 7.9 2.2 4.7L 2.8 0L 8.5 0L 8.5 9.4L 7.3 9.4L 7.3 1.1L 3.8 1.1L 3.3 4.9C 2.8 9 1.7 9.7 0 9.7L 0 8.5L 2.84217e-14 8.5Z"/>
<path id="path4_fill" fill-rule="evenodd" d="M 4.7 0C 1.9 0 0 2.09998 0 4.90002C 0 7.59998 1.9 9.69995 4.7 9.80005C 7.5 9.80005 9.4 7.69995 9.4 4.90002C 9.4 2.09998 7.5 0 4.7 0ZM 4.7 1.09998C 6.8 1.09998 8.10001 2.69995 8.10001 4.90002C 8.10001 7 6.7 8.69995 4.7 8.69995C 2.60001 8.69995 1.3 7.09998 1.3 4.90002C 1.3 2.69995 2.60001 1.09998 4.7 1.09998Z"/>
<path id="path5_fill" d="M 6.7 9.4L 6.7 1.1L 1.2 1.1L 1.2 9.4L 0 9.4L 0 0L 7.8 0L 7.8 9.4L 6.7 9.4Z"/>
<path id="path6_fill" fill-rule="evenodd" d="M 0 0L 0 9.30005L 1.2 9.30005L 1.2 5.59998L 3.8 5.59998C 5.60001 5.59998 6.7 4.30005 6.7 2.80005C 6.7 1.30005 5.7 0 3.8 0L 0 0ZM 3.60001 1C 4.70001 1 5.5 1.69995 5.5 2.80005C 5.5 3.90002 4.8 4.59998 3.60001 4.59998L 1.10001 4.59998L 1.10001 1L 3.60001 1Z"/>
<path id="path7_fill" d="M 0 4.9C 0 2 2.1 0 4.8 0C 6.5 0 7.6 0.8 8.4 1.9L 7.4 2.4C 6.9 1.6 5.9 1 4.8 1C 2.7 1 1.2 2.6 1.2 4.8C 1.2 7 2.8 8.6 4.8 8.6C 5.9 8.6 6.8 8 7.4 7.2L 8.4 7.7C 7.6 8.8 6.5 9.6 4.8 9.6C 2.2 9.7 0 7.8 0 4.9Z"/>
<path id="path8_fill" fill-rule="evenodd" d="M 1.2 3.80005L 1.2 0.0999756L 1.2 0L 0 0L 0 9.40002L 3.8 9.40002C 5.60001 9.40002 6.7 8.09998 6.7 6.59998C 6.7 5.09998 5.7 3.80005 3.8 3.80005L 1.2 3.80005ZM 1.2 8.40002L 1.2 4.80005L 3.7 4.80005C 4.8 4.80005 5.59999 5.5 5.59999 6.6001C 5.59999 7.70007 4.8 8.40002 3.7 8.40002L 1.2 8.40002Z"/>
<path id="path9_fill" d="M 5.7 9.4L 2.1 5.2L 1.2 6.3L 1.2 9.4L 0 9.4L 0 0L 1.2 0L 1.2 4.9L 5.3 0L 6.8 0L 2.9 4.5L 7.1 9.4L 5.7 9.4Z"/>
<path id="path10_fill" fill-rule="evenodd" d="M 6.8 7.30005L 7.60001 9.40002L 9 9.40002L 5.2 0L 3.8 0L 0 9.40002L 1.3 9.40002L 2.10001 7.30005L 6.8 7.30005ZM 2.5 6.19995L 4.5 1.19995L 6.5 6.19995L 2.5 6.19995Z"/>
<path id="path11_fill" fill-rule="evenodd" d="M 4.7 0C 1.89999 0 0 2.09998 0 4.90002C 0 7.59998 1.89999 9.69995 4.7 9.80005C 7.5 9.80005 9.39999 7.69995 9.39999 4.90002C 9.39999 2.09998 7.5 0 4.7 0ZM 4.7 1.09998C 6.8 1.09998 8.10001 2.69995 8.10001 4.90002C 8.10001 7 6.8 8.69995 4.7 8.69995C 2.60001 8.69995 1.3 7.09998 1.3 4.90002C 1.3 2.69995 2.60001 1.09998 4.7 1.09998Z"/>
<path id="path12_fill" d="M 8 9.4L 8 1.7L 4.8 9.4L 4.4 9.4L 1.2 1.7L 1.2 9.4L 0 9.4L 0 0L 1.7 0L 4.6 7.1L 7.5 0L 9.2 0L 9.2 9.4L 8 9.4Z"/>
<path id="path13_fill" fill-rule="evenodd" d="M 6.8 7.30005L 7.60001 9.40002L 9 9.40002L 5.2 0L 3.8 0L 0 9.40002L 1.3 9.40002L 2.10001 7.30005L 6.8 7.30005ZM 2.39999 6.19995L 4.39999 1.19995L 6.39999 6.19995L 2.39999 6.19995Z"/>
<path id="path14_fill" d="M 6.7 9.4L 6.7 5.1L 1.2 5.1L 1.2 9.4L 0 9.4L 0 0L 1.2 0L 1.2 4L 6.7 4L 6.7 0L 7.9 0L 7.9 9.4L 6.7 9.4Z"/>
<path id="path15_fill" d="M 0 9.4L 0 0L 1.2 0L 1.2 9.4L 0 9.4Z"/>
<path id="path16_fill" fill-rule="evenodd" d="M 2.5 5.5L 0 9.30005L 0 9.40002L 1.29999 9.40002L 3.70001 5.69995L 5.60001 5.69995L 5.60001 9.40002L 6.89999 9.40002L 6.89999 0L 3.10001 0C 1.29999 0 0.100006 1.09998 0.100006 2.80005C 0.100006 4.5 1.20001 5.40002 2.5 5.5ZM 5.60001 0.900024L 5.60001 4.5L 3.10001 4.5C 2 4.5 1.20001 3.80005 1.20001 2.70007C 1.20001 1.59998 2 0.900024 3.10001 0.900024L 5.60001 0.900024Z"/>
<path id="path17_fill" d="M 30.6 0L 30.6 37.7C 27.9 37.7 25.2 37.7 22.5 37.7L 22.5 7.3L 8.1 7.3L 8.1 37.7C 5.4 37.7 2.7 37.7 0 37.7L 0 0L 30.6 0Z"/>
<path id="path18_fill" fill-rule="evenodd" d="M 0 19.5C 0 32.2 9.1 39 19.2 39C 30.7 39 38.6 31 38.5 19.5C 38.5 6.80005 29.2 0 19.3 0C 9.3 0 0 6.80005 0 19.5ZM 30.5 19.5C 30.5 27.7 25.2 31.6 19.3 31.6C 13.3 31.6 8.2 27.8 8.1 19.5C 8.1 11.5 13.4 7.5 19.3 7.5C 25.2 7.5 30.5 11.5 30.5 19.5Z"/>
<path id="path19_fill" d="M 6.9 38.1L 0 38.1L 0 35.3L 16 0L 19.4 0L 35.5 35.3L 35.5 38.1L 28.4 38.1L 17.7 13.4L 6.9 38.1Z"/>
<path id="path20_fill" fill-rule="evenodd" d="M 0.600006 12.9C 0.600006 17.7 3 21.8 7.3 24L 0 35L 0 37.8L 7.5 37.8L 15.3 25.3L 22 25.3L 22 37.7L 30.1 37.7L 30.1 0L 14 0C 5.3 0 0.600006 6.19995 0.600006 12.9ZM 22 7.09998L 22 18.6L 22 18.7L 13.9 18.7C 10.4 18.7 8.3 16 8.3 12.7999C 8.3 9.59998 10.5 7.09998 13.9 7.09998L 22 7.09998Z"/>
<path id="path21_fill" fill-rule="evenodd" d="M 0 0.0444336L 0 37.7445L 8.10001 37.7445L 8.10001 27.0444L 16.1 27.0444C 24.7 27.0444 29.5 20.7444 29.5 13.7444C 29.5 6.64441 24.9 0.0444336 16.1 0.0444336C 14.2963 0.0444336 12.5037 0.0333252 10.7149 0.0220947C 7.14821 0 3.59628 -0.0220947 0 0.0444336ZM 21.8 13.6444C 21.8 17.2444 19.5 20.2444 16.1 20.2444L 7.89999 20.2444L 7.89999 7.14441C 8.84085 7.14441 9.77043 7.13318 10.6925 7.12195C 12.5145 7.09985 14.3073 7.078 16.1 7.14441C 19.6 7.14441 21.8 10.1444 21.8 13.6444Z"/>
<path id="path22_fill" d="M 2.4 38L 0 38L 0 0.2L 8.1 0.2L 8.1 21.6L 29.3 0L 31.8 0L 31.8 37.9L 23.8 37.9L 23.8 16.3L 2.4 38Z"/>
<path id="path23_fill" d="M 19.3 0.00422927C 26.9 0.00422927 35 4.10423 36.7 13.4042L 28.9 13.4042C 27.2 9.10423 23.8 7.30423 19.3 7.30423C 12.6 7.30423 8.1 12.2042 8.1 19.3042C 8.1 25.8042 12.5 31.2042 19.2 31.2042C 23.9 31.2042 27.7 29.0042 29 24.4042L 36.8 24.4042C 35.2 34.4042 27.2 38.5042 19.3 38.5042C 9.4 38.5042 0 31.8042 0 19.3042C 0.1 6.70423 9.4 -0.195771 19.3 0.00422927Z"/>
<path id="path24_fill" d="M 2.39998 4.79995C 3.72545 4.79995 4.79995 3.72545 4.79995 2.39998C 4.79995 1.07451 3.72545 0 2.39998 0C 1.07451 0 0 1.07451 0 2.39998C 0 3.72545 1.07451 4.79995 2.39998 4.79995Z"/>
<path id="path25_fill" d="M 2.59998 5.19995C 4.0359 5.19995 5.19995 4.0359 5.19995 2.59998C 5.19995 1.16405 4.0359 0 2.59998 0C 1.16405 0 0 1.16405 0 2.59998C 0 4.0359 1.16405 5.19995 2.59998 5.19995Z"/>
<path id="path26_fill" d="M 3.19997 6.39994C 4.96726 6.39994 6.39994 4.96726 6.39994 3.19997C 6.39994 1.43268 4.96726 0 3.19997 0C 1.43268 0 0 1.43268 0 3.19997C 0 4.96726 1.43268 6.39994 3.19997 6.39994Z"/>
<path id="path27_fill" d="M 5.09995 10.1999C 7.91658 10.1999 10.1999 7.91658 10.1999 5.09995C 10.1999 2.28333 7.91658 0 5.09995 0C 2.28333 0 0 2.28333 0 5.09995C 0 7.91658 2.28333 10.1999 5.09995 10.1999Z"/>
<path id="path28_fill" d="M 3.89996 7.79993C 6.05385 7.79993 7.79993 6.05385 7.79993 3.89996C 7.79993 1.74607 6.05385 0 3.89996 0C 1.74607 0 0 1.74607 0 3.89996C 0 6.05385 1.74607 7.79993 3.89996 7.79993Z"/>
<path id="path29_fill" d="M 7.59993 15.1999C 11.7973 15.1999 15.1999 11.7973 15.1999 7.59993C 15.1999 3.4026 11.7973 0 7.59993 0C 3.4026 0 0 3.4026 0 7.59993C 0 11.7973 3.4026 15.1999 7.59993 15.1999Z"/>
</defs>
</svg>
